trsm/Aula 05/aula 05 Exercício 2 diagrama de tempo.vcd
$date
	03/22/17 19:41:56
$end
$version
	RIMS 2.7
$end
$timescale
	1 ms
$end
$scope module RIMS $end
$var wire 1 *TMR TIMER_ISR $end
$var wire 1 *A0 A0 $end
$var wire 1 *A1 A1 $end
$var wire 1 *A2 A2 $end
$var wire 1 *A3 A3 $end
$var wire 1 *A4 A4 $end
$var wire 1 *A5 A5 $end
$var wire 1 *A6 A6 $end
$var wire 1 *A7 A7 $end
$var wire 1 *B0 B0 $end
$var wire 1 *B1 B1 $end
$var wire 1 *B2 B2 $end
$var wire 1 *B3 B3 $end
$var wire 1 *B4 B4 $end
$var wire 1 *B5 B5 $end
$var wire 1 *B6 B6 $end
$var wire 1 *B7 B7 $end
$upscope $end
$enddefinitions $end

#0
$dumpvars
b0 *TMR
b0 *A0
b0 *A1
b0 *A2
b0 *A3
b0 *A4
b0 *A5
b0 *A6
b0 *A7
b0 *B0
b0 *B1
b0 *B2
b0 *B3
b0 *B4
b0 *B5
b0 *B6
b0 *B7
$end
#4
b0 *B0
#5
b0 *B0
#6
b0 *B0
#8
b0 *B0
#9
b0 *B0
#11
b0 *B0
#12
b0 *B0
#13
b0 *B0
#15
b0 *B0
#16
b0 *B0
#18
b0 *B0
#19
b0 *B0
#20
b0 *B0
#22
b0 *B0
#23
b0 *B0
#25
b0 *B0
#26
b0 *B0
#27
b0 *B0
#29
b0 *B0
#30
b0 *B0
#32
b0 *B0
#33
b0 *B0
#34
b0 *B0
#36
b0 *B0
#37
b0 *B0
#39
b0 *B0
#40
b0 *B0
#41
b0 *B0
#43
b0 *B0
#44
b0 *B0
#46
b0 *B0
#47
b0 *B0
#48
b0 *B0
#50
b0 *B0
#51
b0 *B0
#53
b0 *B0
#54
b0 *B0
#55
b0 *B0
#57
b0 *B0
#58
b0 *B0
#60
b0 *B0
#61
b0 *B0
#62
b0 *B0
#64
b0 *B0
#65
b0 *B0
#67
b0 *B0
#68
b0 *B0
#69
b0 *B0
#71
b0 *B0
#72
b0 *B0
#74
b0 *B0
#75
b0 *B0
#76
b0 *B0
#78
b0 *B0
#79
b0 *B0
#81
b0 *B0
#82
b0 *B0
#83
b0 *B0
#85
b0 *B0
#86
b0 *B0
#88
b0 *B0
#89
b0 *B0
#90
b0 *B0
#92
b0 *B0
#93
b0 *B0
#95
b0 *B0
#96
b0 *B0
#97
b0 *B0
#99
b0 *B0
#100
b0 *B0
#102
b0 *B0
#103
b0 *B0
#104
b0 *B0
#106
b0 *B0
#107
b0 *B0
#109
b0 *B0
#110
b0 *B0
#111
b0 *B0
#113
b0 *B0
#114
b0 *B0
#116
b0 *B0
#117
b0 *B0
#118
b0 *B0
#120
b0 *B0
#121
b0 *B0
#123
b0 *B0
#124
b0 *B0
#125
b0 *B0
#127
b0 *B0
#128
b0 *B0
#130
b0 *B0
#131
b0 *B0
#132
b0 *B0
#134
b0 *B0
#135
b0 *B0
#137
b0 *B0
#138
b0 *B0
#139
b0 *B0
#141
b0 *B0
#142
b0 *B0
#144
b0 *B0
#145
b0 *B0
#146
b0 *B0
#148
b0 *B0
#149
b0 *B0
#151
b0 *B0
#152
b0 *B0
#153
b0 *B0
#155
b0 *B0
#156
b0 *B0
#158
b0 *B0
#159
b0 *B0
#160
b0 *B0
#162
b0 *B0
#163
b0 *B0
#165
b0 *B0
#166
b0 *B0
#167
b0 *B0
#169
b0 *B0
#170
b0 *B0
#172
b0 *B0
#173
b0 *B0
#174
b0 *B0
#176
b0 *B0
#177
b0 *B0
#179
b0 *B0
#180
b0 *B0
#181
b0 *B0
#183
b0 *B0
#184
b0 *B0
#186
b0 *B0
#187
b0 *B0
#188
b0 *B0
#190
b0 *B0
#191
b0 *B0
#193
b0 *B0
#194
b0 *B0
#195
b0 *B0
#197
b0 *B0
#198
b0 *B0
#200
b0 *B0
#201
b0 *B0
#202
b0 *B0
#204
b0 *B0
#205
b0 *B0
#207
b0 *B0
#208
b0 *B0
#209
b0 *B0
#211
b0 *B0
#212
b0 *B0
#214
b0 *B0
#215
b0 *B0
#216
b0 *B0
#218
b0 *B0
#219
b0 *B0
#221
b0 *B0
#222
b0 *B0
#223
b0 *B0
#225
b0 *B0
#226
b0 *B0
#228
b0 *B0
#229
b0 *B0
#230
b0 *B0
#232
b0 *B0
#233
b0 *B0
#235
b0 *B0
#236
b0 *B0
#237
b0 *B0
#239
b0 *B0
#240
b0 *B0
#242
b0 *B0
#243
b0 *B0
#244
b0 *B0
#246
b0 *B0
#247
b0 *B0
#249
b0 *B0
#250
b0 *B0
#251
b0 *B0
#253
b0 *B0
#254
b0 *B0
#256
b0 *B0
#257
b0 *B0
#258
b0 *B0
#260
b0 *B0
#261
b0 *B0
#263
b0 *B0
#264
b0 *B0
#265
b0 *B0
#267
b0 *B0
#268
b0 *B0
#270
b0 *B0
#271
b0 *B0
#272
b0 *B0
#274
b0 *B0
#275
b0 *B0
#277
b0 *B0
#278
b0 *B0
#279
b0 *B0
#281
b0 *B0
#282
b0 *B0
#284
b0 *B0
#285
b0 *B0
#286
b0 *B0
#288
b0 *B0
#289
b0 *B0
#291
b0 *B0
#292
b0 *B0
#293
b0 *B0
#295
b0 *B0
#296
b0 *B0
#298
b0 *B0
#299
b0 *B0
#300
b0 *B0
#302
b0 *B0
#303
b0 *B0
#305
b0 *B0
#306
b0 *B0
#307
b0 *B0
#309
b0 *B0
#310
b0 *B0
#312
b0 *B0
#313
b0 *B0
#314
b0 *B0
#316
b0 *B0
#317
b0 *B0
#319
b0 *B0
#320
b0 *B0
#321
b0 *B0
#323
b0 *B0
#324
b0 *B0
#326
b0 *B0
#327
b0 *B0
#328
b0 *B0
#330
b0 *B0
#331
b0 *B0
#333
b0 *B0
#334
b0 *B0
#335
b0 *B0
#337
b0 *B0
#338
b0 *B0
#340
b0 *B0
#341
b0 *B0
#342
b0 *B0
#344
b0 *B0
#345
b0 *B0
#347
b0 *B0
#348
b0 *B0
#349
b0 *B0
#351
b0 *B0
#352
b0 *B0
#354
b0 *B0
#355
b0 *B0
#356
b0 *B0
#358
b0 *B0
#359
b0 *B0
#361
b0 *B0
#362
b0 *B0
#363
b0 *B0
#365
b0 *B0
#366
b0 *B0
#368
b0 *B0
#369
b0 *B0
#370
b0 *B0
#372
b0 *B0
#373
b0 *B0
#375
b0 *B0
#376
b0 *B0
#377
b0 *B0
#379
b0 *B0
#380
b0 *B0
#382
b0 *B0
#383
b0 *B0
#384
b0 *B0
#386
b0 *B0
#387
b0 *B0
#389
b0 *B0
#390
b0 *B0
#391
b0 *B0
#393
b0 *B0
#394
b0 *B0
#396
b0 *B0
#397
b0 *B0
#398
b0 *B0
#400
b0 *B0
#401
b0 *B0
#403
b0 *B0
#404
b0 *B0
#405
b0 *B0
#407
b0 *B0
#408
b0 *B0
#410
b0 *B0
#411
b0 *B0
#412
b0 *B0
#414
b0 *B0
#415
b0 *B0
#417
b0 *B0
#418
b0 *B0
#419
b0 *B0
#421
b0 *B0
#422
b0 *B0
#424
b0 *B0
#425
b0 *B0
#426
b0 *B0
#428
b0 *B0
#429
b0 *B0
#431
b0 *B0
#432
b0 *B0
#433
b0 *B0
#435
b0 *B0
#436
b0 *B0
#438
b0 *B0
#439
b0 *B0
#440
b0 *B0
#442
b0 *B0
#443
b0 *B0
#445
b0 *B0
#446
b0 *B0
#447
b0 *B0
#449
b0 *B0
#450
b0 *B0
#452
b0 *B0
#453
b0 *B0
#454
b0 *B0
#456
b0 *B0
#457
b0 *B0
#459
b0 *B0
#460
b0 *B0
#461
b0 *B0
#463
b0 *B0
#464
b0 *B0
#466
b0 *B0
#467
b0 *B0
#468
b0 *B0
#470
b0 *B0
#471
b0 *B0
#473
b0 *B0
#474
b0 *B0
#475
b0 *B0
#477
b0 *B0
#478
b0 *B0
#480
b0 *B0
#481
b0 *B0
#482
b0 *B0
#484
b0 *B0
#485
b0 *B0
#487
b0 *B0
#488
b0 *B0
#489
b0 *B0
#491
b0 *B0
#492
b0 *B0
#494
b0 *B0
#495
b0 *B0
#496
b0 *B0
#498
b0 *B0
#499
b0 *B0
#501
b0 *B0
#502
b0 *B0
#503
b0 *B0
#505
b0 *B0
#506
b0 *B0
#508
b0 *B0
#509
b0 *B0
#510
b0 *B0
#512
b0 *B0
#513
b0 *B0
#515
b0 *B0
#516
b0 *B0
#517
b0 *B0
#519
b0 *B0
#520
b0 *B0
#522
b0 *B0
#523
b0 *B0
#524
b0 *B0
#526
b0 *B0
#527
b0 *B0
#529
b0 *B0
#530
b0 *B0
#531
b0 *B0
#533
b0 *B0
#534
b0 *B0
#536
b0 *B0
#537
b0 *B0
#538
b0 *B0
#540
b0 *B0
#541
b0 *B0
#543
b0 *B0
#544
b0 *B0
#545
b0 *B0
#547
b0 *B0
#548
b0 *B0
#550
b0 *B0
#551
b0 *B0
#552
b0 *B0
#554
b0 *B0
#555
b0 *B0
#557
b0 *B0
#558
b0 *B0
#559
b0 *B0
#561
b0 *B0
#562
b0 *B0
#564
b0 *B0
#565
b0 *B0
#566
b0 *B0
#568
b0 *B0
#569
b0 *B0
#571
b0 *B0
#572
b0 *B0
#573
b0 *B0
#575
b0 *B0
#576
b0 *B0
#578
b0 *B0
#579
b0 *B0
#580
b0 *B0
#582
b0 *B0
#583
b0 *B0
#585
b0 *B0
#586
b0 *B0
#587
b0 *B0
#589
b0 *B0
#590
b0 *B0
#592
b0 *B0
#593
b0 *B0
#594
b0 *B0
#596
b0 *B0
#597
b0 *B0
#599
b0 *B0
#600
b0 *B0
#601
b0 *B0
#603
b0 *B0
#604
b0 *B0
#606
b0 *B0
#607
b0 *B0
#608
b0 *B0
#610
b0 *B0
#611
b0 *B0
#613
b0 *B0
#614
b0 *B0
#615
b0 *B0
#617
b0 *B0
#618
b0 *B0
#620
b0 *B0
#621
b0 *B0
#622
b0 *B0
#624
b0 *B0
#625
b0 *B0
#627
b0 *B0
#628
b0 *B0
#629
b0 *B0
#631
b0 *B0
#632
b0 *B0
#634
b0 *B0
#635
b0 *B0
#636
b0 *B0
#638
b0 *B0
#639
b0 *B0
#641
b0 *B0
#642
b0 *B0
#643
b0 *B0
#645
b0 *B0
#646
b0 *B0
#648
b0 *B0
#649
b0 *B0
#650
b0 *B0
#652
b0 *B0
#653
b0 *B0
#655
b0 *B0
#656
b0 *B0
#657
b0 *B0
#659
b0 *B0
#660
b0 *B0
#662
b0 *B0
#663
b0 *B0
#664
b0 *B0
#666
b0 *B0
#667
b0 *B0
#669
b0 *B0
#670
b0 *B0
#671
b0 *B0
#673
b0 *B0
#674
b0 *B0
#676
b0 *B0
#677
b0 *B0
#678
b0 *B0
#680
b0 *B0
#681
b0 *B0
#683
b0 *B0
#684
b0 *B0
#685
b0 *B0
#687
b0 *B0
#688
b0 *B0
#690
b0 *B0
#691
b0 *B0
#692
b0 *B0
#694
b0 *B0
#695
b0 *B0
#697
b0 *B0
#698
b0 *B0
#699
b0 *B0
#700
b1 *A0
#700
b1 *A0
#701
b0 *B0
#703
b0 *B0
#705
b0 *B0
#707
b0 *B0
#708
b0 *B0
#710
b0 *B0
#712
b0 *B0
#714
b0 *B0
#716
b0 *B0
#717
b0 *B0
#719
b0 *B0
#721
b0 *B0
#723
b0 *B0
#725
b0 *B0
#726
b0 *B0
#728
b0 *B0
#730
b0 *B0
#732
b0 *B0
#734
b0 *B0
#735
b0 *B0
#737
b0 *B0
#739
b0 *B0
#741
b0 *B0
#743
b0 *B0
#744
b0 *B0
#746
b0 *B0
#748
b0 *B0
#750
b0 *B0
#752
b0 *B0
#753
b0 *B0
#755
b0 *B0
#757
b0 *B0
#759
b0 *B0
#761
b0 *B0
#762
b0 *B0
#764
b0 *B0
#766
b0 *B0
#768
b0 *B0
#770
b0 *B0
#771
b0 *B0
#773
b0 *B0
#775
b0 *B0
#777
b0 *B0
#779
b0 *B0
#780
b0 *B0
#782
b0 *B0
#784
b0 *B0
#786
b0 *B0
#788
b0 *B0
#789
b0 *B0
#791
b0 *B0
#793
b0 *B0
#795
b0 *B0
#797
b0 *B0
#798
b0 *B0
#800
b0 *B0
#802
b0 *B0
#804
b0 *B0
#806
b0 *B0
#807
b0 *B0
#809
b0 *B0
#811
b0 *B0
#813
b0 *B0
#815
b0 *B0
#816
b0 *B0
#818
b0 *B0
#820
b0 *B0
#822
b0 *B0
#824
b0 *B0
#825
b0 *B0
#827
b0 *B0
#829
b0 *B0
#831
b0 *B0
#833
b0 *B0
#834
b0 *B0
#836
b0 *B0
#838
b0 *B0
#840
b0 *B0
#842
b0 *B0
#843
b0 *B0
#845
b0 *B0
#847
b0 *B0
#849
b0 *B0
#851
b0 *B0
#852
b0 *B0
#854
b0 *B0
#856
b0 *B0
#858
b0 *B0
#860
b0 *B0
#861
b0 *B0
#863
b0 *B0
#865
b0 *B0
#867
b0 *B0
#869
b0 *B0
#870
b0 *B0
#872
b0 *B0
#874
b0 *B0
#876
b0 *B0
#878
b0 *B0
#879
b0 *B0
#881
b0 *B0
#883
b0 *B0
#885
b0 *B0
#887
b0 *B0
#888
b0 *B0
#890
b0 *B0
#892
b0 *B0
#894
b0 *B0
#896
b0 *B0
#897
b0 *B0
#899
b0 *B0
#901
b0 *B0
#903
b0 *B0
#905
b0 *B0
#906
b0 *B0
#908
b0 *B0
#910
b0 *B0
#912
b0 *B0
#914
b0 *B0
#915
b0 *B0
#917
b0 *B0
#919
b0 *B0
#921
b0 *B0
#923
b0 *B0
#924
b0 *B0
#926
b0 *B0
#928
b0 *B0
#930
b0 *B0
#932
b0 *B0
#933
b0 *B0
#935
b0 *B0
#937
b0 *B0
#939
b0 *B0
#941
b0 *B0
#942
b0 *B0
#944
b0 *B0
#946
b0 *B0
#948
b0 *B0
#950
b0 *B0
#951
b0 *B0
#953
b0 *B0
#955
b0 *B0
#957
b0 *B0
#959
b0 *B0
#960
b0 *B0
#962
b0 *B0
#964
b0 *B0
#966
b0 *B0
#968
b0 *B0
#969
b0 *B0
#971
b0 *B0
#973
b0 *B0
#975
b0 *B0
#977
b0 *B0
#978
b0 *B0
#980
b0 *B0
#982
b0 *B0
#984
b0 *B0
#986
b0 *B0
#987
b0 *B0
#989
b0 *B0
#991
b0 *B0
#993
b0 *B0
#995
b0 *B0
#996
b0 *B0
#998
b0 *B0
#1000
b0 *B0
#1002
b0 *B0
#1004
b0 *B0
#1005
b0 *B0
#1007
b0 *B0
#1009
b0 *B0
#1011
b0 *B0
#1013
b0 *B0
#1014
b0 *B0
#1016
b0 *B0
#1018
b0 *B0
#1020
b0 *B0
#1022
b0 *B0
#1023
b0 *B0
#1025
b0 *B0
#1027
b0 *B0
#1029
b0 *B0
#1031
b0 *B0
#1032
b0 *B0
#1034
b0 *B0
#1036
b0 *B0
#1038
b0 *B0
#1040
b0 *B0
#1041
b0 *B0
#1043
b0 *B0
#1045
b0 *B0
#1047
b0 *B0
#1049
b0 *B0
#1050
b0 *B0
#1052
b0 *B0
#1054
b0 *B0
#1056
b0 *B0
#1058
b0 *B0
#1059
b0 *B0
#1061
b0 *B0
#1063
b0 *B0
#1065
b0 *B0
#1067
b0 *B0
#1068
b0 *B0
#1070
b0 *B0
#1072
b0 *B0
#1074
b0 *B0
#1076
b0 *B0
#1077
b0 *B0
#1079
b0 *B0
#1081
b0 *B0
#1083
b0 *B0
#1085
b0 *B0
#1086
b0 *B0
#1088
b0 *B0
#1090
b0 *B0
#1092
b0 *B0
#1094
b0 *B0
#1095
b0 *B0
#1097
b0 *B0
#1099
b0 *B0
#1101
b0 *B0
#1103
b0 *B0
#1104
b0 *B0
#1106
b0 *B0
#1108
b0 *B0
#1110
b0 *B0
#1112
b0 *B0
#1113
b0 *B0
#1115
b0 *B0
#1117
b0 *B0
#1119
b0 *B0
#1121
b0 *B0
#1122
b0 *B0
#1124
b0 *B0
#1125
b1 *A1
#1125
b1 *A1
#1127
b1 *B0
#1129
b1 *B0
#1131
b1 *B0
#1134
b1 *B0
#1136
b1 *B0
#1139
b1 *B0
#1141
b1 *B0
#1143
b1 *B0
#1146
b1 *B0
#1148
b1 *B0
#1151
b1 *B0
#1153
b1 *B0
#1155
b1 *B0
#1158
b1 *B0
#1160
b1 *B0
#1163
b1 *B0
#1165
b1 *B0
#1167
b1 *B0
#1170
b1 *B0
#1172
b1 *B0
#1175
b1 *B0
#1177
b1 *B0
#1179
b1 *B0
#1182
b1 *B0
#1184
b1 *B0
#1187
b1 *B0
#1189
b1 *B0
#1191
b1 *B0
#1194
b1 *B0
#1196
b1 *B0
#1199
b1 *B0
#1201
b1 *B0
#1203
b1 *B0
#1206
b1 *B0
#1208
b1 *B0
#1211
b1 *B0
#1213
b1 *B0
#1215
b1 *B0
#1218
b1 *B0
#1220
b1 *B0
#1223
b1 *B0
#1225
b1 *B0
#1227
b1 *B0
#1230
b1 *B0
#1232
b1 *B0
#1235
b1 *B0
#1237
b1 *B0
#1239
b1 *B0
#1242
b1 *B0
#1244
b1 *B0
#1247
b1 *B0
#1249
b1 *B0
#1251
b1 *B0
#1254
b1 *B0
#1256
b1 *B0
#1259
b1 *B0
#1261
b1 *B0
#1263
b1 *B0
#1266
b1 *B0
#1268
b1 *B0
#1271
b1 *B0
#1273
b1 *B0
#1275
b1 *B0
#1278
b1 *B0
#1280
b1 *B0
#1283
b1 *B0
#1285
b1 *B0
#1287
b1 *B0
#1290
b1 *B0
#1292
b1 *B0
#1295
b1 *B0
#1297
b1 *B0
#1299
b1 *B0
#1302
b1 *B0
#1304
b1 *B0
#1307
b1 *B0
#1309
b1 *B0
#1311
b1 *B0
#1314
b1 *B0
#1316
b1 *B0
#1319
b1 *B0
#1321
b1 *B0
#1323
b1 *B0
#1326
b1 *B0
#1328
b1 *B0
#1331
b1 *B0
#1333
b1 *B0
#1335
b1 *B0
#1338
b1 *B0
#1340
b1 *B0
#1343
b1 *B0
#1345
b1 *B0
#1347
b1 *B0
#1350
b1 *B0
#1352
b1 *B0
#1355
b1 *B0
#1357
b1 *B0
#1359
b1 *B0
#1362
b1 *B0
#1364
b1 *B0
#1367
b1 *B0
#1369
b1 *B0
#1371
b1 *B0
#1374
b1 *B0
#1376
b1 *B0
#1379
b1 *B0
#1381
b1 *B0
#1383
b1 *B0
#1386
b1 *B0
#1388
b1 *B0
#1391
b1 *B0
#1393
b1 *B0
#1395
b1 *B0
#1398
b1 *B0
#1400
b1 *B0
#1403
b1 *B0
#1405
b1 *B0
#1407
b1 *B0
#1410
b1 *B0
#1412
b1 *B0
#1415
b1 *B0
#1417
b1 *B0
#1419
b1 *B0
#1422
b1 *B0
#1424
b1 *B0
#1427
b1 *B0
#1429
b1 *B0
#1431
b1 *B0
#1434
b1 *B0
#1436
b1 *B0
#1439
b1 *B0
#1441
b1 *B0
#1443
b1 *B0
#1446
b1 *B0
#1448
b1 *B0
#1451
b1 *B0
#1453
b1 *B0
#1455
b1 *B0
#1458
b1 *B0
#1460
b1 *B0
#1463
b1 *B0
#1465
b1 *B0
#1467
b1 *B0
#1470
b1 *B0
#1472
b1 *B0
#1475
b1 *B0
#1477
b1 *B0
#1479
b1 *B0
#1482
b1 *B0
#1484
b1 *B0
#1487
b1 *B0
#1489
b1 *B0
#1491
b1 *B0
#1494
b1 *B0
#1496
b1 *B0
#1499
b1 *B0
#1501
b1 *B0
#1503
b1 *B0
#1506
b1 *B0
#1508
b1 *B0
#1511
b1 *B0
#1513
b1 *B0
#1515
b1 *B0
#1518
b1 *B0
#1520
b1 *B0
#1523
b1 *B0
#1525
b1 *B0
#1527
b1 *B0
#1530
b1 *B0
#1532
b1 *B0
#1535
b1 *B0
#1537
b1 *B0
#1539
b1 *B0
#1542
b1 *B0
#1544
b1 *B0
#1547
b1 *B0
#1549
b1 *B0
#1551
b1 *B0
#1554
b1 *B0
#1556
b1 *B0
#1559
b1 *B0
#1561
b1 *B0
#1563
b1 *B0
#1566
b1 *B0
#1568
b1 *B0
#1571
b1 *B0
#1573
b1 *B0
#1575
b1 *B0
#1578
b1 *B0
#1580
b1 *B0
#1583
b1 *B0
#1585
b1 *B0
#1587
b1 *B0
#1590
b1 *B0
#1592
b1 *B0
#1595
b1 *B0
#1597
b1 *B0
#1599
b1 *B0
#1602
b1 *B0
#1604
b1 *B0
#1607
b1 *B0
#1609
b1 *B0
#1611
b1 *B0
#1614
b1 *B0
#1616
b1 *B0
#1619
b1 *B0
#1621
b1 *B0
#1623
b1 *B0
#1626
b1 *B0
#1628
b1 *B0
#1631
b1 *B0
#1633
b1 *B0
#1635
b1 *B0
#1638
b1 *B0
#1640
b1 *B0
#1643
b1 *B0
#1645
b1 *B0
#1647
b1 *B0
#1650
b1 *B0
#1652
b1 *B0
#1655
b1 *B0
#1657
b1 *B0
#1659
b1 *B0
#1662
b1 *B0
#1664
b1 *B0
#1667
b1 *B0
#1669
b1 *B0
#1671
b1 *B0
#1674
b1 *B0
#1676
b1 *B0
#1679
b1 *B0
#1681
b1 *B0
#1683
b1 *B0
#1686
b1 *B0
#1688
b1 *B0
#1691
b1 *B0
#1693
b1 *B0
#1695
b1 *B0
#1698
b1 *B0
#1700
b1 *B0
#1703
b1 *B0
#1705
b1 *B0
#1707
b1 *B0
#1710
b1 *B0
#1712
b1 *B0
#1715
b1 *B0
#1717
b1 *B0
#1719
b1 *B0
#1722
b1 *B0
#1724
b1 *B0
#1725
b0 *A0
#1725
b0 *A0
#1726
b0 *B0
#1727
b0 *B0
#1728
b0 *B0
#1730
b0 *B0
#1731
b0 *B0
#1733
b0 *B0
#1734
b0 *B0
#1735
b0 *B0
#1737
b0 *B0
#1738
b0 *B0
#1740
b0 *B0
#1741
b0 *B0
#1742
b0 *B0
#1744
b0 *B0
#1745
b0 *B0
#1747
b0 *B0
#1748
b0 *B0
#1749
b0 *B0
#1751
b0 *B0
#1752
b0 *B0
#1754
b0 *B0
#1755
b0 *B0
#1756
b0 *B0
#1758
b0 *B0
#1759
b0 *B0
#1761
b0 *B0
#1762
b0 *B0
#1763
b0 *B0
#1765
b0 *B0
#1766
b0 *B0
#1768
b0 *B0
#1769
b0 *B0
#1770
b0 *B0
#1772
b0 *B0
#1773
b0 *B0
#1775
b0 *B0
#1776
b0 *B0
#1777
b0 *B0
#1779
b0 *B0
#1780
b0 *B0
#1782
b0 *B0
#1783
b0 *B0
#1784
b0 *B0
#1786
b0 *B0
#1787
b0 *B0
#1789
b0 *B0
#1790
b0 *B0
#1791
b0 *B0
#1793
b0 *B0
#1794
b0 *B0
#1796
b0 *B0
#1797
b0 *B0
#1798
b0 *B0
#1800
b0 *B0
#1801
b0 *B0
#1803
b0 *B0
#1804
b0 *B0
#1805
b0 *B0
#1807
b0 *B0
#1808
b0 *B0
#1810
b0 *B0
#1811
b0 *B0
#1812
b0 *B0
#1814
b0 *B0
#1815
b0 *B0
#1817
b0 *B0
#1818
b0 *B0
#1819
b0 *B0
#1821
b0 *B0
#1822
b0 *B0
#1824
b0 *B0
#1825
b0 *B0
#1826
b0 *B0
#1828
b0 *B0
#1829
b0 *B0
#1831
b0 *B0
#1832
b0 *B0
#1833
b0 *B0
#1835
b0 *B0
#1836
b0 *B0
#1838
b0 *B0
#1839
b0 *B0
#1840
b0 *B0
#1842
b0 *B0
#1843
b0 *B0
#1845
b0 *B0
#1846
b0 *B0
#1847
b0 *B0
#1849
b0 *B0
#1850
b0 *B0
#1852
b0 *B0
#1853
b0 *B0
#1854
b0 *B0
#1856
b0 *B0
#1857
b0 *B0
#1859
b0 *B0
#1860
b0 *B0
#1861
b0 *B0
#1863
b0 *B0
#1864
b0 *B0
#1866
b0 *B0
#1867
b0 *B0
#1868
b0 *B0
#1870
b0 *B0
#1871
b0 *B0
#1873
b0 *B0
#1874
b0 *B0
#1875
b0 *B0
#1877
b0 *B0
#1878
b0 *B0
#1880
b0 *B0
#1881
b0 *B0
#1882
b0 *B0
#1884
b0 *B0
#1885
b0 *B0
#1887
b0 *B0
#1888
b0 *B0
#1889
b0 *B0
#1891
b0 *B0
#1892
b0 *B0
#1894
b0 *B0
#1895
b0 *B0
#1896
b0 *B0
#1898
b0 *B0
#1899
b0 *B0
#1901
b0 *B0
#1902
b0 *B0
#1903
b0 *B0
#1905
b0 *B0
#1906
b0 *B0
#1908
b0 *B0
#1909
b0 *B0
#1910
b0 *B0
#1912
b0 *B0
#1913
b0 *B0
#1915
b0 *B0
#1916
b0 *B0
#1917
b0 *B0
#1919
b0 *B0
#1920
b0 *B0
#1922
b0 *B0
#1923
b0 *B0
#1924
b0 *B0
#1926
b0 *B0
#1927
b0 *B0
#1929
b0 *B0
#1930
b0 *B0
#1931
b0 *B0
#1933
b0 *B0
#1934
b0 *B0
#1936
b0 *B0
#1937
b0 *B0
#1938
b0 *B0
#1940
b0 *B0
#1941
b0 *B0
#1943
b0 *B0
#1944
b0 *B0
#1945
b0 *B0
#1947
b0 *B0
#1948
b0 *B0
#1950
b0 *B0
#1951
b0 *B0
#1952
b0 *B0
#1954
b0 *B0
#1955
b0 *B0
#1957
b0 *B0
#1958
b0 *B0
#1959
b0 *B0
#1961
b0 *B0
#1962
b0 *B0
#1964
b0 *B0
#1965
b0 *B0
#1966
b0 *B0
#1968
b0 *B0
#1969
b0 *B0
#1971
b0 *B0
#1972
b0 *B0
#1973
b0 *B0
#1975
b0 *B0
#1976
b0 *B0
#1978
b0 *B0
#1979
b0 *B0
#1980
b0 *B0
#1982
b0 *B0
#1983
b0 *B0
#1985
b0 *B0
#1986
b0 *B0
#1987
b0 *B0
#1989
b0 *B0
#1990
b0 *B0
#1992
b0 *B0
#1993
b0 *B0
#1994
b0 *B0
#1996
b0 *B0
#1997
b0 *B0
#1999
b0 *B0
#2000
b0 *B0
#2001
b0 *B0
#2003
b0 *B0
#2004
b0 *B0
#2006
b0 *B0
#2007
b0 *B0
#2008
b0 *B0
#2010
b0 *B0
#2011
b0 *B0
#2013
b0 *B0
#2014
b0 *B0
#2015
b0 *B0
#2017
b0 *B0
#2018
b0 *B0
#2020
b0 *B0
#2021
b0 *B0
#2022
b0 *B0
#2024
b0 *B0
#2025
b0 *A1
#2025
b0 *A1
#2025
b0 *B0
#2027
b0 *B0
#2028
b0 *B0
#2029
b0 *B0
#2031
b0 *B0
#2032
b0 *B0
#2034
b0 *B0
#2035
b0 *B0
#2036
b0 *B0
#2038
b0 *B0
#2039
b0 *B0
#2041
b0 *B0
#2042
b0 *B0
#2043
b0 *B0
#2045
b0 *B0
#2046
b0 *B0
#2048
b0 *B0
#2049
b0 *B0
#2050
b0 *B0
#2052
b0 *B0
#2053
b0 *B0
#2055
b0 *B0
#2056
b0 *B0
#2057
b0 *B0
#2059
b0 *B0
#2060
b0 *B0
#2062
b0 *B0
#2063
b0 *B0
#2064
b0 *B0
#2066
b0 *B0
#2067
b0 *B0
#2069
b0 *B0
#2070
b0 *B0
#2071
b0 *B0
#2073
b0 *B0
#2074
b0 *B0
#2076
b0 *B0
#2077
b0 *B0
#2078
b0 *B0
#2080
b0 *B0
#2081
b0 *B0
#2083
b0 *B0
#2084
b0 *B0
#2085
b0 *B0
#2087
b0 *B0
#2088
b0 *B0
#2090
b0 *B0
#2091
b0 *B0
#2092
b0 *B0
#2094
b0 *B0
#2095
b0 *B0
#2097
b0 *B0
#2098
b0 *B0
#2099
b0 *B0
#2101
b0 *B0
#2102
b0 *B0
#2104
b0 *B0
#2105
b0 *B0
#2106
b0 *B0
#2108
b0 *B0
#2109
b0 *B0
#2111
b0 *B0
#2112
b0 *B0
#2113
b0 *B0
#2115
b0 *B0
#2116
b0 *B0
#2118
b0 *B0
#2119
b0 *B0
#2120
b0 *B0
#2122
b0 *B0
#2123
b0 *B0
#2125
b0 *B0
#2126
b0 *B0
#2127
b0 *B0
#2129
b0 *B0
#2130
b0 *B0
#2132
b0 *B0
#2133
b0 *B0
#2134
b0 *B0
#2136
b0 *B0
#2137
b0 *B0
#2139
b0 *B0
#2140
b0 *B0
#2141
b0 *B0
#2143
b0 *B0
#2144
b0 *B0
#2146
b0 *B0
#2147
b0 *B0
#2148
b0 *B0
#2150
b0 *B0
#2151
b0 *B0
#2153
b0 *B0
#2154
b0 *B0
#2155
b0 *B0
#2157
b0 *B0
#2158
b0 *B0
#2160
b0 *B0
#2161
b0 *B0
#2162
b0 *B0
#2164
b0 *B0
#2165
b0 *B0
#2167
b0 *B0
#2168
b0 *B0
#2169
b0 *B0
#2171
b0 *B0
#2172
b0 *B0
#2174
b0 *B0
#2175
b0 *B0
#2176
b0 *B0
#2178
b0 *B0
#2179
b0 *B0
#2181
b0 *B0
#2182
b0 *B0
#2183
b0 *B0
#2185
b0 *B0
#2186
b0 *B0
#2188
b0 *B0
#2189
b0 *B0
#2190
b0 *B0
#2192
b0 *B0
#2193
b0 *B0
#2195
b0 *B0
#2196
b0 *B0
#2197
b0 *B0
#2199
b0 *B0
#2200
b0 *B0
#2202
b0 *B0
#2203
b0 *B0
#2204
b0 *B0
#2206
b0 *B0
#2207
b0 *B0
#2209
b0 *B0
#2210
b0 *B0
#2211
b0 *B0
#2213
b0 *B0
#2214
b0 *B0
#2216
b0 *B0
#2217
b0 *B0
#2218
b0 *B0
#2220
b0 *B0
#2221
b0 *B0
#2223
b0 *B0
#2224
b0 *B0
#2225
b0 *B0
#2227
b0 *B0
#2228
b0 *B0
#2230
b0 *B0
#2231
b0 *B0
#2232
b0 *B0
#2234
b0 *B0
#2235
b0 *B0
#2237
b0 *B0
#2238
b0 *B0
#2239
b0 *B0
#2241
b0 *B0
#2242
b0 *B0
#2244
b0 *B0
#2245
b0 *B0
#2246
b0 *B0
#2248
b0 *B0
#2249
b0 *B0
#2251
b0 *B0
#2252
b0 *B0
#2253
b0 *B0
#2255
b0 *B0
#2256
b0 *B0
#2258
b0 *B0
#2259
b0 *B0
#2260
b0 *B0
