trsm/Aula 05/aula 05 Exercício 2_1 diagrama de tempo.vcd
$date
	03/22/17 19:39:51
$end
$version
	RIMS 2.7
$end
$timescale
	1 ms
$end
$scope module RIMS $end
$var wire 1 *TMR TIMER_ISR $end
$var wire 1 *A0 A0 $end
$var wire 1 *A1 A1 $end
$var wire 1 *A2 A2 $end
$var wire 1 *A3 A3 $end
$var wire 1 *A4 A4 $end
$var wire 1 *A5 A5 $end
$var wire 1 *A6 A6 $end
$var wire 1 *A7 A7 $end
$var wire 1 *B0 B0 $end
$var wire 1 *B1 B1 $end
$var wire 1 *B2 B2 $end
$var wire 1 *B3 B3 $end
$var wire 1 *B4 B4 $end
$var wire 1 *B5 B5 $end
$var wire 1 *B6 B6 $end
$var wire 1 *B7 B7 $end
$upscope $end
$enddefinitions $end

#0
$dumpvars
b0 *TMR
b0 *A0
b0 *A1
b0 *A2
b0 *A3
b0 *A4
b0 *A5
b0 *A6
b0 *A7
b0 *B0
b0 *B1
b0 *B2
b0 *B3
b0 *B4
b0 *B5
b0 *B6
b0 *B7
$end
#3
b0 *B0
#213
b0 *B0
#424
b0 *B0
#634
b0 *B0
#845
b0 *B0
#1055
b0 *B0
#1265
b0 *B0
#1350
b1 *A0
#1350
b1 *A0
#1476
b0 *B0
#1600
b1 *A1
#1600
b1 *A1
#1688
b1 *B0
#1875
b1 *B0
#1900
b0 *A1
#1900
b0 *A1
#2061
b0 *B0
#2272
b0 *B0
#2275
b0 *A0
#2275
b0 *A0
#2482
b0 *B0
#2500
b1 *A1
#2500
b1 *A1
#2693
b0 *B0
#2903
b0 *B0
#2975
b1 *A0
#2975
b1 *A0
#3114
b1 *B0
#3301
b1 *B0
#3425
b0 *A1
#3425
b0 *A1
#3488
b0 *B0
#3699
b0 *B0
#3875
b1 *A1
#3875
b1 *A1
#3910
b1 *B0
#4097
b1 *B0
#4275
b0 *A1
#4275
b0 *A1
#4283
b0 *B0
#4494
b0 *B0
#4600
b1 *A1
#4600
b1 *A1
#4706
b1 *B0
#4893
b1 *B0
#5050
b0 *A1
#5050
b0 *A1
#5079
b0 *B0
#5290
b0 *B0
#5425
b0 *A0
#5425
b0 *A0
#5500
b0 *B0
#5711
b0 *B0
#5725
b1 *A1
#5725
b1 *A1
#5921
b0 *B0
#6050
b1 *A0
#6050
b1 *A0
#6132
b1 *B0
#6319
b1 *B0
#6375
b0 *A0
#6375
b0 *A0
#6505
b0 *B0
#6716
b0 *B0
#6775
b0 *A1
#6775
b0 *A1
#6926
b0 *B0
#7137
b0 *B0
#7347
b0 *B0
#7557
b0 *B0
#7768
b0 *B0
#7978
b0 *B0
#8189
b0 *B0
#3
b0 *B0
#213
b0 *B0
#424
b0 *B0
#634
b0 *B0
#845
b0 *B0
#1055
b0 *B0
#1265
b0 *B0
#1350
b1 *A0
#1350
b1 *A0
#1476
b0 *B0
#1600
b1 *A1
#1600
b1 *A1
#1688
b1 *B0
#1875
b1 *B0
#1900
b0 *A1
#1900
b0 *A1
#2061
b0 *B0
#2272
b0 *B0
#2275
b0 *A0
#2275
b0 *A0
#2482
b0 *B0
#2500
b1 *A1
#2500
b1 *A1
#2693
b0 *B0
#2903
b0 *B0
#2975
b1 *A0
#2975
b1 *A0
#3114
b1 *B0
#3301
b1 *B0
#3425
b0 *A1
#3425
b0 *A1
#3488
b0 *B0
#3699
b0 *B0
#3875
b1 *A1
#3875
b1 *A1
#3910
b1 *B0
#4097
b1 *B0
#4275
b0 *A1
#4275
b0 *A1
#4283
b0 *B0
#4494
b0 *B0
#4600
b1 *A1
#4600
b1 *A1
#4706
b1 *B0
#4893
b1 *B0
#5050
b0 *A1
#5050
b0 *A1
#5079
b0 *B0
#5290
b0 *B0
#5425
b0 *A0
#5425
b0 *A0
#5500
b0 *B0
#5711
b0 *B0
#5725
b1 *A1
#5725
b1 *A1
#5921
b0 *B0
#6050
b1 *A0
#6050
b1 *A0
#6132
b1 *B0
#6319
b1 *B0
#6375
b0 *A0
#6375
b0 *A0
#6505
b0 *B0
#6716
b0 *B0
#6775
b0 *A1
#6775
b0 *A1
#6926
b0 *B0
#7137
b0 *B0
#7347
b0 *B0
#7557
b0 *B0
#7768
b0 *B0
#7978
b0 *B0
#8189
b0 *B0
